Marilyn,Monroe,2/6/1926,6/8/1962
Albert,Einstein,3/14/1879,4/18/1955
Nikola,Tesla,7/10/1856,1/7/1943
Nikola,Tesla,7/10/1856,1/7/1943
Marilyn,Monroe,2/6/1926,6/8/1962
Elon,Musk,6/6/1971,
Michael,Jackson,8/29/1958,6/25/2009
Nikola,Tesla,7/10/1856,1/7/1943
Fred,Mercury,9/5/1946,11/24/1991
